dump.vcd
$date
Sat Jul 26 10:39:32 2025
$end
$version
Riviera-PRO Version 2023.04.112.8911
$end
$timescale
1 ns
$end

$scope module tb $end

$scope module fif $end
$var reg 1 ! clock $end
$var reg 1 " rd $end
$var reg 1 # wr $end
$var reg 1 $ full $end
$var reg 1 % empty $end
$var reg 8 & data_in [7:0] $end
$var reg 8 ' data_out [7:0] $end
$var reg 1 ( rst $end
$upscope $end


$scope module dut $end
$var wire 1 ) clk $end
$var wire 1 * rst $end
$var wire 1 + wr $end
$var wire 1 , rd $end
$var wire 8 - din [7:0] $end
$var wire 1 . empty $end
$var wire 1 / full $end
$var reg 8 0 dout [7:0] $end
$var reg 4 1 wptr [3:0] $end
$var reg 4 2 rptr [3:0] $end
$var reg 5 3 cnt [4:0] $end
$upscope $end

$upscope $end

$enddefinitions $end
$dumpvars
0!
0"
0#
0$
1%
b0 &
bx '
1(
0)
1*
0+
0,
b0 -
1.
0/
bx 0
b0 1
b0 2
b0 3
$end
#10
1!
1)
#20
0!
0)
#30
1!
1)
#40
0!
0)
#50
1!
1)
#60
0!
0)
#70
1!
1)
#80
0!
0)
#90
1!
1)
0(
0*
#100
0!
0)
#110
1!
1)
1#
b10 &
b10 -
1+
#120
0!
0)
#130
1!
1)
0#
b1 1
b1 3
0.
0%
0+
#140
0!
0)
#150
1!
1)
#160
0!
0)
#170
1!
1)
1#
b111 &
b111 -
1+
#180
0!
0)
#190
1!
1)
0#
b10 1
b10 3
0+
#200
0!
0)
#210
1!
1)
#220
0!
0)
#230
1!
1)
1#
b1001 &
b1001 -
1+
#240
0!
0)
#250
1!
1)
0#
b11 1
b11 3
0+
#260
0!
0)
#270
1!
1)
#280
0!
0)
#290
1!
1)
1#
b111 &
b111 -
1+
#300
0!
0)
#310
1!
1)
0#
b100 1
b100 3
0+
#320
0!
0)
#330
1!
1)
#340
0!
0)
#350
1!
1)
1#
b10 &
b10 -
1+
#360
0!
0)
#370
1!
1)
0#
b101 1
b101 3
0+
#380
0!
0)
#390
1!
1)
#400
0!
0)
#410
1!
1)
1"
1,
#420
0!
0)
#430
1!
1)
0"
b10 0
b1 2
b100 3
b10 '
0,
#440
0!
0)
#450
1!
1)
#460
0!
0)
#470
1!
1)
1"
1,
#480
0!
0)
#490
1!
1)
0"
b111 0
b10 2
b11 3
b111 '
0,
#500
0!
0)
#510
1!
1)
#520
0!
0)
#530
1!
1)
1"
1,
#540
0!
0)
#550
1!
1)
0"
b1001 0
b11 2
b10 3
b1001 '
0,
#560
0!
0)
#570
1!
1)
#580
0!
0)
#590
1!
1)
1#
b1010 &
b1010 -
1+
#600
0!
0)
#610
1!
1)
0#
b110 1
b11 3
0+
#620
0!
0)
#630
1!
1)
#640
0!
0)
#650
1!
1)
1"
1,
#660
0!
0)
#670
1!
1)
0"
b111 0
b100 2
b10 3
b111 '
0,
